id;amount;created_time
1;48469;2022-02-09
2;74058;2022-02-08
3;74309;2022-02-08
4;76865;2022-02-08
5;34818;2022-02-08
6;63528;2022-02-08
7;57039;2022-02-08
8;6249;2022-02-08
9;20742;2022-02-09
10;26312;2022-02-08
