{
  "applications": "*",
  "changelogDate": "20220209152949",
  "dto": "no",
  "embedded": false,
  "entityTableName": "customer",
  "fields": [
    {
      "fieldName": "name",
      "fieldType": "String"
    }
  ],
  "fluentMethods": true,
  "jpaMetamodelFiltering": false,
  "name": "Customer",
  "pagination": "no",
  "readOnly": false,
  "relationships": [],
  "service": "no"
}
