{
  "applications": "*",
  "changelogDate": "20220209152951",
  "dto": "no",
  "embedded": false,
  "entityTableName": "order_line",
  "fields": [
    {
      "fieldName": "quantity",
      "fieldType": "BigDecimal"
    },
    {
      "fieldName": "price",
      "fieldType": "BigDecimal"
    }
  ],
  "fluentMethods": true,
  "jpaMetamodelFiltering": false,
  "name": "OrderLine",
  "pagination": "no",
  "readOnly": false,
  "relationships": [
    {
      "otherEntityName": "order",
      "otherEntityRelationshipName": "lines",
      "relationshipName": "order",
      "relationshipType": "many-to-one"
    },
    {
      "otherEntityField": "name",
      "otherEntityName": "product",
      "otherEntityRelationshipName": "orderLine",
      "relationshipName": "product",
      "relationshipType": "many-to-one"
    }
  ],
  "service": "no"
}
